{
  "tests": [
    {
      "targets": [
        "runtime_tp_unit_tests"
      ],
      "profiles": [
        "Debug"
      ]
    },
    {
      "targets": [
        "runtime_tp_random_tests"
      ],
      "profiles": [
        "Matrix"
      ]
    },
    {
      "targets": [
        "runtime_tp_stress_tests"
      ],
      "profiles": [
        "Fiber",
        "FaultyThreadASan",
        "FaultyThreadTSan"
      ]
    }
  ]
}
